{
    "__default__":
    {
        "time": "2:00:00",
        "N": "1",
        "c": "20",
        "C": "cstd01",
        "partition": "short",
        "mem-per-cpu": "62000",
        "mail-user": "uriel-elias.wiebelitz@tu-dortmund.de",
        "mail-type": "FAIL"
    },
    
    "compile":
    {
        "time": "00:04:00"
    },
    
    "download":
    {
        "time": "00:05:00"
    },
    
    "upack":
    {
        "time": "00:03:00"
    },
    
    "dm_3_way_cuckoo_short":
    {
        "time": "2:00:00",
        "partition": "short"
    },
    
    "dm_3_way_cuckoo_long":
    {
        "time": "6:00:00",
        "partition": "med"
    },
    
    "dm_3_way_cuckoo_short_prefetch":
    {
        "time": "2:00:00",
        "partition": "short"
    },
    
    "dm_3_way_cuckoo_short_delimited_linear":
    {
        "time": "2:00:00",
        "partition": "short"
    },
    
    "dm_3_way_cuckoo_long_delimited_linear":
    {
        "time": "3:00:00",
        "partition": "med"
    },
    
    "dm_3_way_cuckoo_short_multilevel":
    {
        "time": "2:00:00",
        "partition": "short"
    },
    
    "dm_3_way_cuckoo_short_blocked":
    {
        "time": "2:00:00",
        "partition": "short"
    },
    
    "dm_3_way_cuckoo_blocked_batches":
    {
        "time": "8:00:00",
        "partition": "med"
    },
    
    "human_3_way_cuckoo_default":
    {
        "time": "8:00:00",
        "partition": "med"
    },
    
    "human_3_way_cuckoo_linear":
    {
        "time": "8:00:00",
        "partition": "med"
    },
    
    "human_3_way_cuckoo_prefetched":
    {
        "time": "8:00:00",
        "partition": "med"
    },
    
    "human_3_way_cuckoo_subhts":
    {
        "time": "8:00:00",
        "partition": "med"
    },
    
    "human_3_way_cuckoo_parallel_reads":
    {
        "time": "8:00:00",
        "partition": "med"
    },
    
    "human_3_way_cuckoo_combined":
    {
        "time": "8:00:00",
        "partition": "med"
    },
    
    "human_3_way_cuckoo_manual_replacing":
    {
        "time": "8:00:00",
        "partition": "med"
    },
}
